

The context allocation routine failed when it tried to load localization files!!
One or more following problems may caused the failure

Your sybase home directory is C:\SAP. Check the environment variable SYBASE if it is not the one you want!
Using locale name "pl_PL.UTF-8" defined in environment variable LANG
Locale name "pl_PL.UTF-8" doesn't exist in your C:\SAP\locales\locales.dat file
